{
  "$schema": "https://docs.renovatebot.com/renovate-schema.json",
  "extends": [
    "config:recommended",
    ":semanticCommitTypeAll(chore)",
    "schedule:weekends"
  ],
  "labels": ["renovate"],

  "packageRules": [
    {
      "matchCategories": ["python"],
      "matchUpdateTypes": ["minor", "patch"],
      "groupName": "python"
    },
    {
      "matchManagers": ["gitlabci-include"],
      "enabled": false
    }
  ]
}
